{
    "chromeWebSecurity": false,
    "defaultCommandTimeout": 10000,
    "execTimeout": 60000,
    "pageLoadTimeout": 60000,
    "requestTimeout": 15000,
    "responetimeout": 15000,
    "reporter": "cypress-multi-reporters",
    "reporterOptions": {
        "reporterEnabled": "mochawesome",
        "mochawesomeReporterOptions": {
            "reportDir": "cypress/reports/mocha",
            "quite": true,
            "overwrite": false,
            "html": false,
            "json": true
        }
    },
    "experimentalStudio":true
      

    
}
    

